{
	"attributes": [
		{
			"name": "customer_id",
			"type": "bigint",
			"operation": [
					"insert"
				]
		},	
		{
			"name": "customer_name",
			"type": "varchar",
			"operation": [
					"insert",
					"update"
				]
		},
		{
			"name": "gender",
			"type": "varchar",
			"operation": [
					"insert",
					"update"
				]
		},
		{
			"name": "birth_date",
			"type": "date",
			"operation": [
					"insert",
					"update"
				]
		},
		{
			"name": "email_address",
			"type": "varchar",
			"operation": [
					"insert",
					"update"
				]
		},
		{
			"name": "country",
			"type": "varchar",
			"operation": [
					"insert",
					"update"
				]
		},
		{
			"name": "zip_code",
			"type": "bigint",
			"operation": [
					"insert",
					"update"
				]
		},
		{
			"name": "street",
			"type": "varchar",
			"operation": [
					"insert",
					"update"
				]
		},
		{
			"name": "street_number",
			"type": "int",
			"operation": [
					"insert",
					"update"
				]
		}
	],
	"merge": {
		"primary_key": [
		{
			"name": "customer_id"
		}
		],
		"transformation":{
				"bigint":"{value}::bigint",
				"date":"{value}::date",
				"int":"{value}::int",
				"varchar":"{value}::varchar"
			}
	}
}